// Jest Snapshot v1, https://goo.gl/fbAQLP

exports[`Wallet Page Wallet page renders correctly 1`] = `
<div>
  <div
    class="MuiContainer-root MuiContainer-maxWidthLg css-okhna0-MuiContainer-root"
  >
    <div
      class="MuiGrid-root MuiGrid-container MuiGrid-spacing-xs-4 css-27y6a6-MuiGrid-root"
    >
      <div
        class="MuiGrid-root MuiGrid-item css-13i4rnv-MuiGrid-root"
      >
        <a
          class="MuiButtonBase-root MuiButton-root MuiButton-text MuiButton-textPrimary MuiButton-sizeMedium MuiButton-textSizeMedium MuiPaper-root MuiPaper-elevation MuiPaper-rounded MuiPaper-elevation5 css-11teg0a-MuiButtonBase-root-MuiButton-root-MuiPaper-root"
          href="/wallet/smart-contracts"
          role="button"
          tabindex="0"
        >
          <div
            style="width: 100px;"
          >
            <svg
              viewBox="0 0 100 100"
              x="0px"
              xmlns="http://www.w3.org/2000/svg"
              y="0px"
            >
              <g
                fill="none"
                fill-rule="evenodd"
              >
                <path
                  d="M21,24.0292884 L21,87 C21,90.8659932 24.1340068,94 28,94 L72,94 C75.8659932,94 79,90.8659932 79,87 L79,13 C79,9.13400675 75.8659932,6 72,6 L41.3939617,6 C39.4960191,6 37.6794285,6.77067983 36.3604757,8.1354323 L21,24.0292884 Z"
                  stroke="rgba(0, 0, 0, 0.87)"
                  stroke-width="2"
                  transform="matrix(-1 0 0 1 100 0)"
                />
                <path
                  d="M61,24.0674227 L72,24.0674227 C76,24.0674227 78,22.7116151 78,20 C78,17.2883849 78,12.9550516 78,7"
                  stroke="rgba(0, 0, 0, 0.87)"
                  stroke-linecap="square"
                  stroke-width="2"
                  transform="matrix(-1 0 0 1 139 0)"
                />
                <polygon
                  fill="rgba(0, 0, 0, 0.87)"
                  fill-rule="nonzero"
                  points="69.718 79 69.685 79.311 69.025 79.214 68.692 79.165 68.586 79.452 68.379 80.019 67.76 79.794 67.447 79.68 67.273 79.94 66.93 80.452 66.382 80.11 66.104 79.936 65.87 80.154 65.406 80.586 64.958 80.142 64.732 79.918 64.449 80.084 63.89 80.412 63.564 79.891 63.398 79.627 63.081 79.732 62.456 79.941 62.266 79.369 62.17 79.079 61.835 79.119 61.172 79.199 59 83.123 62.071 82.462 63.287 85 65.5 81.002 67.713 85 68.929 82.462 72 83.123"
                />
                <polygon
                  fill="rgba(0, 0, 0, 0.87)"
                  fill-rule="nonzero"
                  points="60.638 73.525 60.131 74.25 60.89 74.704 60.557 75.523 61.398 75.799 61.254 76.672 62.135 76.753 62.164 77.216 62.19 77.636 63.067 77.518 63.318 78.366 64.147 78.057 64.579 78.829 65.319 78.343 65.912 79 66.524 78.362 67.249 78.869 67.704 78.11 68.523 78.443 68.799 77.602 69.672 77.746 69.736 77.045 69.753 76.865 70.636 76.81 70.518 75.933 71.367 75.682 71.057 74.853 71.829 74.421 71.343 73.681 72 73.088 71.361 72.475 71.869 71.751 71.11 71.296 71.443 70.477 70.602 70.201 70.746 69.328 69.865 69.247 69.81 68.364 68.933 68.482 68.682 67.633 67.853 67.943 67.421 67.171 66.681 67.657 66.088 67 65.476 67.638 64.751 67.131 64.296 67.89 63.477 67.557 63.201 68.398 62.328 68.254 62.247 69.135 61.364 69.19 61.482 70.067 60.633 70.318 60.943 71.147 60.171 71.579 60.657 72.319 60 72.912"
                />
                <path
                  d="M28.5 79L52 79M28.5 74L52 74M28.5 69L52 69M28.5 59L71 59M28.5 54L71 54M28.5 49L71 49M28.5 44L71 44M28.5 39L71 39M28.5 34L71 34M28.5 24L52 24M28.5 19L52 19M28.5 14L52 14"
                  stroke="rgba(0, 0, 0, 0.87)"
                  stroke-linecap="square"
                  stroke-width="2"
                />
              </g>
            </svg>
          </div>
          <hr
            class="MuiDivider-root MuiDivider-fullWidth MuiDivider-flexItem css-sw154v-MuiDivider-root"
          />
          <span
            class="MuiTypography-root MuiTypography-overline css-khzmen-MuiTypography-root"
          >
            wallet.labels.smartContracts
          </span>
          <span
            class="MuiTouchRipple-root css-8je8zh-MuiTouchRipple-root"
          />
        </a>
      </div>
      <div
        class="MuiGrid-root MuiGrid-item css-13i4rnv-MuiGrid-root"
      >
        <a
          class="MuiButtonBase-root MuiButton-root MuiButton-text MuiButton-textPrimary MuiButton-sizeMedium MuiButton-textSizeMedium MuiPaper-root MuiPaper-elevation MuiPaper-rounded MuiPaper-elevation5 css-11teg0a-MuiButtonBase-root-MuiButton-root-MuiPaper-root"
          href="/wallet/accounts"
          role="button"
          tabindex="0"
        >
          <div
            style="width: 100px;"
          >
            <svg
              fill="currentColor"
              viewBox="0 0 469.341 469.341"
              xmlns="http://www.w3.org/2000/svg"
            >
              <g>
                <path
                  d="M448.004,236.639v-65.965c0-22.368-17.35-40.559-39.271-42.323l-61.26-107c-5.677-9.896-14.844-16.969-25.813-19.906     c-10.917-2.917-22.333-1.385-32.104,4.302L79.553,128.007H42.67c-23.531,0-42.667,19.135-42.667,42.667v256     c0,23.531,19.135,42.667,42.667,42.667h362.667c23.531,0,42.667-19.135,42.667-42.667v-65.965     c12.389-4.418,21.333-16.147,21.333-30.035v-64C469.337,252.786,460.393,241.057,448.004,236.639z M383.944,128.007h-92.971     l69.729-40.596L383.944,128.007z M350.103,68.898l-101.529,59.109h-42.113l133.112-77.5L350.103,68.898z M300.295,24.184     c4.823-2.823,10.458-3.573,15.844-2.135c5.448,1.458,9.99,4.979,12.813,9.906l0.022,0.039l-164.91,96.013h-42.111L300.295,24.184     z M426.67,426.674c0,11.76-9.573,21.333-21.333,21.333H42.67c-11.76,0-21.333-9.573-21.333-21.333v-256     c0-11.76,9.573-21.333,21.333-21.333h362.667c11.76,0,21.333,9.573,21.333,21.333v64h-64c-35.292,0-64,28.708-64,64     c0,35.292,28.708,64,64,64h64V426.674z M448.004,330.674c0,5.885-4.781,10.667-10.667,10.667H362.67     c-23.531,0-42.667-19.135-42.667-42.667c0-23.531,19.135-42.667,42.667-42.667h74.667c5.885,0,10.667,4.781,10.667,10.667     V330.674z"
                />
                <path
                  d="M362.67,277.341c-11.76,0-21.333,9.573-21.333,21.333c0,11.76,9.573,21.333,21.333,21.333     c11.76,0,21.333-9.573,21.333-21.333C384.004,286.914,374.431,277.341,362.67,277.341z"
                />
              </g>
              <g
                transform="matrix(0.11603786,0,0,0.12361039,109.1213,203.83162)"
              >
                <path
                  d="m 755.68,1593 q -170.51,0 -248.91,-82.14 a 253.6,253.6 0 0 1 -78.15,-177 117.39,117.39 0 0 1 13.69,-58.5 101.21,101.21 0 0 1 37.33,-37.36 130.22,130.22 0 0 1 116.24,0 99.55,99.55 0 0 1 37.12,37.36 115,115 0 0 1 14.18,58.5 111.73,111.73 0 0 1 -19.91,68.45 92.78,92.78 0 0 1 -47.31,34.62 129.18,129.18 0 0 0 74.67,46.55 370,370 0 0 0 101.8,14.68 226.91,226.91 0 0 0 128.19,-38.33 224,224 0 0 0 83.63,-113.25 492,492 0 0 0 27.38,-169.5 A 465.07,465.07 0 0 0 965.76,1000.85 217.54,217.54 0 0 0 879.39,891.33 229.68,229.68 0 0 0 754.96,855.74 236.75,236.75 0 0 0 647.18,892.33 L 567.26,932.4 V 892.33 L 926.43,410.5 H 428.62 v 500 a 178.9,178.9 0 0 0 27.38,102.3 94.34,94.34 0 0 0 83.63,40.07 139.85,139.85 0 0 0 82.63,-29.12 298.38,298.38 0 0 0 69.2,-71.19 24.86,24.86 0 0 1 9,-11.94 18.4,18.4 0 0 1 12,-4.48 41.55,41.55 0 0 1 23.4,9.95 49.82,49.82 0 0 1 12.69,33.85 197.86,197.86 0 0 1 -4.48,24.89 241,241 0 0 1 -85.38,106 211.78,211.78 0 0 1 -119.76,36.38 q -161.67,0 -224,-63.72 A 238.67,238.67 0 0 1 253.2,909.25 V 410.5 H 0 V 317.6 H 254.38 V 105.78 L 196.14,47.5 V 0 h 169 l 63.48,32.86 V 317.6 l 657.6,-2 65.47,65.71 -403.23,405.19 a 271,271 0 0 1 76.16,-18.42 330.1,330.1 0 0 1 147.38,42.07 302.7,302.7 0 0 1 126.95,113.29 399.78,399.78 0 0 1 57.25,136.65 575.65,575.65 0 0 1 13.69,117 489.39,489.39 0 0 1 -49.78,216.79 317.92,317.92 0 0 1 -149.35,149.35 483.27,483.27 0 0 1 -215.08,49.77 z"
                />
              </g>
            </svg>
          </div>
          <hr
            class="MuiDivider-root MuiDivider-fullWidth MuiDivider-flexItem css-sw154v-MuiDivider-root"
          />
          <span
            class="MuiTypography-root MuiTypography-overline css-khzmen-MuiTypography-root"
          >
            wallet.labels.accounts
          </span>
          <span
            class="MuiTouchRipple-root css-8je8zh-MuiTouchRipple-root"
          />
        </a>
      </div>
    </div>
  </div>
</div>
`;
